{
  "type": "minecraft:ore",
  "config": {
    "size": 16,
    "discard_chance_on_air_exposure": 0,
    "targets": [
      {
        "target": {
          "predicate_type": "minecraft:tag_match",
          "tag": "minecraft:stone_ore_replaceables"
        },
        "state": {
          "Name": "fantasy_forging:aluminum_ore"
        }
      },
      {
        "target": {
          "predicate_type": "minecraft:tag_match",
          "tag": "minecraft:deepslate_ore_replaceables"
        },
        "state": {
          "Name": "fantasy_forging:deepslate_aluminum_ore"
        }
      }
    ]
  }
}
