{
  "required": true,
  "minVersion": "0.8",
  "package": "com.voxelbuster.fantasy_forging.mixin.fabric",
  "compatibilityLevel": "JAVA_17",
  "mixins": [
  ],
  "client": [
  ],
  "injectors": {
    "defaultRequire": 1
  }
}
