{
  "parent": "fantasy_forging:block/lightless_ore",
  "textures": {},
  "display": {
    "thirdperson_righthand": {
      "translation": [
        0,
        1.5,
        -2.75
      ],
      "rotation": [
        10,
        -45,
        170
      ],
      "scale": [
        0.375,
        0.375,
        0.375
      ]
    },
    "thirdperson_lefthand": {
      "translation": [
        0,
        1.5,
        -2.75
      ],
      "rotation": [
        10,
        -45,
        170
      ],
      "scale": [
        0.375,
        0.375,
        0.375
      ]
    }
  }
}