{
  "replace": false,
  "values": [
    "fantasy_forging:lightless_ingot",
    "fantasy_forging:tin_ingot",
    "fantasy_forging:lead_ingot",
    "fantasy_forging:aluminum_ingot",
    "fantasy_forging:silver_ingot",
    "fantasy_forging:tungsten_ingot",
    "fantasy_forging:titanium_ingot",
    "fantasy_forging:platinum_ingot",
    "fantasy_forging:cobalt_ingot",
    "fantasy_forging:osmium_ingot",
    "fantasy_forging:bronze_ingot",
    "fantasy_forging:brass_ingot",
    "fantasy_forging:steel_ingot",
    "fantasy_forging:electrum_ingot",
    "fantasy_forging:white_gold_ingot",
    "fantasy_forging:cryosilver_ingot",
    "fantasy_forging:prismarium_ingot",
    "fantasy_forging:enderium_ingot",
    "fantasy_forging:durasteel_ingot",
    "fantasy_forging:tungsten_carbide_ingot",
    "fantasy_forging:mithril_ingot",
    "fantasy_forging:orichalcum_ingot",
    "fantasy_forging:adamantite_ingot",
    "fantasy_forging:khlorocyte_ingot",
    "fantasy_forging:mycelite_ingot",
    "fantasy_forging:stellarium_ingot",
    "fantasy_forging:lunarium_ingot",
    "fantasy_forging:fae_steel_ingot",
    "fantasy_forging:sunsteel_ingot",
    "fantasy_forging:moonsilver_ingot",
    "fantasy_forging:aetherium_ingot",
    "fantasy_forging:abyssal_ingot",
    "fantasy_forging:gaia_alloy_ingot",
    "fantasy_forging:celestial_alloy_ingot"
  ]
}